<svg width="54" height="54" viewBox="0 0 54 54" fill="none" xmlns="http://www.w3.org/2000/svg">
<g clip-path="url(#clip0_204_859)">
<path d="M32.9244 24.2083C33.0888 23.8033 32.8939 23.3419 32.4889 23.1775C32.0839 23.0131 31.6229 23.208 31.4585 23.613C31.4495 23.6356 30.4937 25.8941 27.1669 25.8941C23.8524 25.8941 22.6766 23.6644 22.623 23.559C22.4302 23.1697 21.9585 23.0086 21.5675 23.1997C21.1749 23.3913 21.0122 23.8647 21.2038 24.2573C21.268 24.3887 22.8249 27.4757 27.1669 27.4757C31.5467 27.4762 32.87 24.3418 32.9244 24.2083Z" fill="black"/>
<path d="M33.8027 52.4173L12.4988 52.4177C12.3534 52.4177 12.2352 52.2995 12.2352 52.154L12.2347 37.1074C12.2347 36.6703 11.8804 36.3164 11.4437 36.3164C11.0066 36.3164 10.6527 36.6707 10.6527 37.1074L10.6531 52.154C10.6531 53.1716 11.4812 53.9997 12.4988 53.9997L33.8027 53.9993C34.2398 53.9993 34.5937 53.645 34.5937 53.2083C34.5937 52.7712 34.2398 52.4173 33.8027 52.4173Z" fill="black"/>
<path d="M42.9122 31.2324C42.5632 30.8839 42.0997 30.6919 41.607 30.6919H34.8286C36.9759 28.9216 38.4434 26.4756 38.9925 23.7404C39.3024 23.8368 39.6216 23.8891 39.9455 23.8891C42.2481 23.8891 43.4531 21.2845 43.4531 18.7117C43.4531 16.4116 42.5414 14.7776 41.0273 14.2577C41.0438 12.9624 40.8926 11.939 40.8428 11.6387C40.8481 11.277 40.8341 9.90546 40.3859 8.30242C40.2681 7.88137 39.8318 7.63582 39.4111 7.75365C38.9901 7.87107 38.7445 8.30777 38.8624 8.72841C39.3044 10.3088 39.2599 11.6531 39.2595 11.6651C39.2574 11.7236 39.2616 11.7829 39.2723 11.8406C39.278 11.8719 39.8379 15.0182 38.9073 17.5083C38.8335 17.7052 38.6749 17.8506 38.4718 17.9071C38.4429 17.9149 38.4067 17.9227 38.3655 17.9269H38.3622C38.2489 17.9376 38.0977 17.9211 37.9527 17.8057C37.5592 17.4943 36.2314 16.1611 35.667 12.0779C35.5924 11.5398 35.2842 11.0627 34.8212 10.7686C34.0405 10.2725 33.3586 9.7283 32.7946 9.15111C31.5356 7.86159 29.5638 7.58391 27.9995 8.47504C25.439 9.93389 21.53 10.5972 19.9682 10.8147C19.1541 10.928 18.5225 11.5501 18.3973 12.3621C17.9927 14.9795 17.1547 17.0147 16.1536 17.807C16.0135 17.9182 15.8669 17.9367 15.7544 17.9277C15.7449 17.9264 15.7354 17.9256 15.726 17.9248C15.6918 17.9203 15.6609 17.9141 15.6357 17.9071C15.4326 17.8506 15.274 17.7052 15.2003 17.5079C14.2679 15.0178 14.8278 11.8719 14.8332 11.8414C14.8402 11.8043 14.8443 11.7668 14.846 11.7293C14.8468 11.7079 14.944 9.56763 15.9649 7.27533C17.3035 4.27112 19.527 2.48474 22.5736 1.96605C29.9498 0.711963 31.6011 2.92351 31.7168 3.09531C31.8355 3.36969 32.0802 3.5073 32.3814 3.52213C34.623 3.63295 36.3546 4.45775 37.5275 5.97345C37.7949 6.3187 38.2917 6.38214 38.6374 6.11476C38.9827 5.84738 39.0461 5.35053 38.7787 5.00487C37.38 3.19831 35.3864 2.17781 32.8477 1.9677C32.081 1.05638 29.5617 -0.827222 22.3083 0.406268C18.7578 1.01065 16.0646 3.16329 14.5197 6.6314C13.4604 9.01021 13.2903 11.2185 13.2681 11.6078C13.2244 11.8628 13.0612 12.9138 13.0785 14.2577C11.5641 14.7772 10.6523 16.4116 10.6523 18.7113C10.6523 21.2841 11.8574 23.8887 14.1604 23.8887C14.4842 23.8887 14.8035 23.8364 15.1129 23.74C15.6621 26.4752 17.1296 28.9211 19.2769 30.6923L12.498 30.6927C11.4804 30.6927 10.6523 31.5208 10.6523 32.5384V43.715C10.6523 44.1521 11.0067 44.506 11.4434 44.506C11.8805 44.506 12.2344 44.1521 12.2344 43.715V32.5384C12.2344 32.393 12.3526 32.2747 12.498 32.2747L41.607 32.2739C41.7022 32.2739 41.7644 32.3221 41.7936 32.3509C41.8225 32.3798 41.8707 32.4424 41.8707 32.5376L41.8711 52.1535C41.8711 52.299 41.7533 52.4172 41.6074 52.4172H27.1427C26.706 52.4172 26.3517 52.7715 26.3517 53.2082C26.3517 53.6453 26.706 53.9992 27.1427 53.9992H41.6074C42.6254 53.9992 43.4531 53.1711 43.4531 52.1535L43.4527 32.5372C43.4527 32.0444 43.2607 31.5809 42.9122 31.2324ZM41.8711 18.7117C41.8711 20.4791 41.1509 22.3071 39.9455 22.3071C39.6909 22.3071 39.4441 22.2465 39.2072 22.1291C39.2249 21.8593 39.2344 21.5874 39.2344 21.3134V19.3058C39.763 19.0606 40.1828 18.6149 40.3892 18.062C40.643 17.3822 40.8036 16.6724 40.9005 15.9819C41.4426 16.3971 41.8711 17.2504 41.8711 18.7117ZM14.1604 22.3071C12.9549 22.3071 12.2344 20.4787 12.2344 18.7117C12.2344 17.25 12.6637 16.3967 13.2058 15.9814C13.3031 16.6719 13.4637 17.3822 13.7184 18.062C13.9248 18.614 14.3433 19.0594 14.8711 19.3049V21.3134C14.8711 21.5874 14.881 21.8589 14.8987 22.1291C14.6618 22.2465 14.415 22.3071 14.1604 22.3071ZM16.4531 21.3134V19.4108C16.6974 19.333 16.929 19.2118 17.1366 19.0462C18.9494 17.6117 19.6843 14.3941 19.9608 12.6036C19.9789 12.487 20.0691 12.398 20.1866 12.3815C21.8386 12.1516 25.9836 11.4446 28.7827 9.84943C29.722 9.31426 30.9061 9.48152 31.6633 10.2565C32.3118 10.921 33.0892 11.5423 33.9729 12.1038C34.0429 12.1483 34.0891 12.2179 34.0998 12.2946C34.1896 12.9439 34.4034 14.2256 34.829 15.5196C35.3695 17.163 36.0901 18.3496 36.9693 19.0454C37.1777 19.211 37.4089 19.3334 37.6523 19.4112V21.3134C37.6523 25.2779 35.4845 28.854 31.983 30.6919L22.1212 30.6923C18.621 28.8532 16.4531 25.2771 16.4531 21.3134Z" fill="black"/>
<path d="M31.0078 42.1875C31.0078 40.0069 29.2338 38.2324 27.0527 38.2324C24.8721 38.2324 23.0977 40.0069 23.0977 42.1875C23.0977 44.3686 24.8721 46.1426 27.0527 46.1426C29.2338 46.1426 31.0078 44.3686 31.0078 42.1875ZM24.6797 42.1875C24.6797 40.879 25.7447 39.8145 27.0527 39.8145C28.3612 39.8145 29.4258 40.879 29.4258 42.1875C29.4258 43.4964 28.3612 44.5605 27.0527 44.5605C25.7447 44.5605 24.6797 43.4964 24.6797 42.1875Z" fill="black"/>
<path d="M30.1443 19.333C30.1571 19.3288 31.4293 18.93 32.6509 19.3849C32.7415 19.4187 32.835 19.4347 32.9265 19.4347C33.2474 19.4347 33.5494 19.2378 33.6681 18.9193C33.8205 18.5102 33.612 18.0546 33.2029 17.9021C31.4487 17.2491 29.7229 17.8061 29.6499 17.83C29.2367 17.9668 29.0134 18.4118 29.1486 18.8254C29.2833 19.2394 29.729 19.466 30.1443 19.333Z" fill="black"/>
<path d="M21.4555 19.3852C22.6679 18.9332 23.9307 19.3234 23.9612 19.3328C24.3756 19.4684 24.821 19.2434 24.9582 18.8298C25.0954 18.4149 24.8704 17.9675 24.4556 17.8303C24.383 17.806 22.6576 17.249 20.903 17.9024C20.4939 18.0549 20.2854 18.5105 20.4379 18.9196C20.5565 19.2385 20.8585 19.435 21.1794 19.435C21.2709 19.435 21.3644 19.4189 21.4555 19.3852Z" fill="black"/>
</g>
<defs>
<clipPath id="clip0_204_859">
<rect width="54" height="54" fill="white"/>
</clipPath>
</defs>
</svg>
